Calculate ROC curve partial points — calc_partial_roc_points • ROCnGO
…
    Examples

# Calc ROC points of Sepal.Width as a classifier of setosa species
# in TPR = (0.9, 1)
calc_partial_roc_points(
 iris,
 response = Species,
 predictor = Sepal.Width,
 lower_threshold = 0.9,
 upper_threshold = 1,
 ratio = "tpr"
)
#> Warning: [*] Upper threshold already included in points ...
#> # A tibble: 59 × 2
#>    partial_tpr partial_fpr
#>          <dbl>       <dbl>
#>  1        0.9         0.35
#>  2        0.96        0.45
#>  3        0.96        0.45
#>  4        0.96        0.45
#>  5        0.96        0.45
#>  6        0.96        0.45
#>  7        0.96        0.45
#>  8        0.96        0.45
#>  9        0.96        0.45
#> 10        0.96        0.45
#> # ℹ 49 more rows
…
