Calculate ROC curve points — roc_points • ROCnGO
…
    Value

    A tibble with two columns:
"tpr". Containing values for "true positive ratio", or y axis.

"fpr". Containing values for "false positive ratio", or x axis.

    Examples

# Calc ROC points of Sepal.Width as a classifier of setosa species
roc_points(iris, Species, Sepal.Width)
#> # A tibble: 151 × 2
#>      tpr   fpr
#>  * <dbl> <dbl>
#>  1  1     1   
#>  2  1     0.99
#>  3  1     0.96
#>  4  1     0.96
#>  5  1     0.96
#>  6  0.98  0.93
#>  7  0.98  0.93
#>  8  0.98  0.93
#>  9  0.98  0.93
#> 10  0.98  0.9 
#> # ℹ 141 more rows
# Change class to predict to virginica
roc_points(iris, Species, Sepal.Width, .condition = "virginica")
#> # A tibble: 151 × 2
#>      tpr   fpr
#>  * <dbl> <dbl>
#>  1  1     1   
#>  2  1     0.99
#>  3  0.98  0.97
#>  4  0.98  0.97
#>  5  0.98  0.97
#>  6  0.98  0.93
#>  7  0.98  0.93
#>  8  0.98  0.93
#>  9  0.98  0.93
#> 10  0.98  0.9 
#> # ℹ 141 more rows
…
