Introduction to ROCnGO • ROCnGO
…
To explore basic tools in the package we will be using
iris dataset. The dataset contains 5 variables for 150
flowers of 3 different species: setosa, versicolor and
virginica.

For the purpose of simplicity, we will only work with a subset of
iris considering only setosa and
virginica species. In the following sections, the performance
of different variables to classify cases in the different species will
be evaluated.

# Filter cases of versicolor species
iris_subset <- as_tibble(iris) %>% filter(Species != "versicolor")
iris_subset
#> # A tibble: 100 × 5
#>    Sepal.Length Sepal.Width Petal.Length Petal.Width Species
#>           <dbl>       <dbl>        <dbl>       <dbl> <fct>  
#>  1          5.1         3.5          1.4         0.2 setosa 
#>  2          4.9         3            1.4         0.2 setosa 
#>  3          4.7         3.2          1.3         0.2 setosa 
#>  4          4.6         3.1          1.5         0.2 setosa 
#>  5          5           3.6          1.4         0.2 setosa 
#>  6          5.4         3.9          1.7         0.4 setosa 
#>  7          4.6         3.4          1.4         0.3 setosa 
#>  8          5           3.4          1.5         0.2 setosa 
#>  9          4.4         2.9          1.4         0.2 setosa 
#> 10          4.9         3.1          1.5         0.1 setosa 
#> # ℹ 90 more rows
…
For example, we can calculate
ROCROC
points for Sepal.Length as a classifier of setosa species.

# Calculate ROC points for Sepal.Lenght
points <- roc_points(
  data = iris_subset,
  predictor = Sepal.Length,
  response = Species
)
points
#> # A tibble: 101 × 2
#>      tpr   fpr
#>    <dbl> <dbl>
#>  1  1        1
#>  2  0.98     1
#>  3  0.92     1
#>  4  0.92     1
#>  5  0.92     1
#>  6  0.9      1
#>  7  0.82     1
#>  8  0.82     1
#>  9  0.82     1
#> 10  0.82     1
#> # ℹ 91 more rows
…
# Calc partial ROC points
p_points <- calc_partial_roc_points(
  data = iris_subset,
  predictor = Sepal.Length,
  response = Species,
  lower_threshold = 0.9,
  upper_threshold = 1,
  ratio = "tpr"
)
p_points
#> # A tibble: 54 × 2
#>    partial_tpr partial_fpr
#>          <dbl>       <dbl>
#>  1        0.9      0.00667
#>  2        0.94     0.02   
#>  3        0.94     0.02   
#>  4        0.94     0.02   
#>  5        0.96     0.06   
#>  6        0.98     0.06   
#>  7        0.98     0.06   
#>  8        0.98     0.1    
#>  9        0.98     0.1    
#> 10        0.98     0.1    
#> # ℹ 44 more rows
…
